{
  "name": "3g_mobiledata",
  "do": "",
  "dont": "",
  "tags": [
    "3g",
    "alphabet",
    "cellular",
    "character",
    "digit",
    "font",
    "letter",
    "mobile",
    "mobiledata",
    "network",
    "number",
    "phone",
    "signal",
    "speed",
    "symbol",
    "text",
    "type",
    "wifi"
  ],
  "category": ["device"],
  "type": "static",
  "label": "None",
  "date": "03/03/2021",
  "hasOutlined": true
}
