{
  "name": "attach_file",
  "do": "",
  "dont": "",
  "tags": ["add", "file", "mail", "link", "attach", "media", "clip"],
  "category": ["editor"],
  "type": "static",
  "hasOutlined": true,
  "date": "30/11/2020"
}
