{
  "name": "border_outer",
  "do": "",
  "dont": "",
  "tags": [
    "border",
    "editor",
    "edit",
    "writing",
    "doc",
    "sheet",
    "text",
    "type",
    "stroke",
    "editing",
    "speadsheet"
  ],
  "category": ["editor"],
  "type": "static",
  "hasOutlined": true,
  "date": "30/11/2020"
}
