{
  "name": "brightness_high",
  "do": "",
  "dont": "",
  "tags": [
    "auto",
    "high",
    "brightness",
    "phone",
    "mobile",
    "control",
    "monitor"
  ],
  "category": ["device"],
  "type": "static",
  "hasOutlined": true,
  "date": "30/11/2020"
}
