{
  "name": "call_end",
  "do": "",
  "dont": "",
  "tags": ["Call", "phone", "mobile", "end", "talk", "device"],
  "category": ["communication"],
  "type": "static",
  "hasOutlined": true,
  "date": "30/11/2020"
}
