{
  "name": "chat_bubble_outline",
  "do": "",
  "dont": "",
  "tags": ["bubble", "speech", "Chat", "talk", "text", "message"],
  "category": ["communication"],
  "type": "static",
  "hasOutlined": true,
  "date": "30/11/2020"
}
