{
  "name": "clear_all",
  "do": "",
  "dont": "",
  "tags": ["all", "document", "format", "doc", "list", "Clear"],
  "category": ["communication"],
  "type": "static",
  "hasOutlined": true,
  "date": "30/11/2020"
}
