{
  "name": "closed_caption_off",
  "do": "",
  "dont": "",
  "tags": [
    "Closed",
    "accessible",
    "alphabet",
    "caption",
    "cc",
    "character",
    "decoder",
    "disabled",
    "font",
    "language",
    "letter",
    "off",
    "subtitle",
    "subtitles",
    "symbol",
    "text",
    "type"
  ],
  "category": ["av"],
  "type": "static",
  "label": "None",
  "date": "03/03/2021",
  "hasOutlined": true
}
