{
  "name": "code",
  "do": "",
  "dont": "",
  "tags": [
    "css",
    "code",
    "developer",
    "html",
    "develop",
    "engineering",
    "engineer",
    "platform",
    "brackets"
  ],
  "category": ["action"],
  "type": "static",
  "hasOutlined": true,
  "date": "30/11/2020"
}
