{
  "name": "credit_card",
  "do": "",
  "dont": "",
  "tags": [
    "charge",
    "money",
    "pay",
    "information",
    "payment",
    "credit",
    "card",
    "info"
  ],
  "category": ["action"],
  "type": "static",
  "hasOutlined": true,
  "date": "30/11/2020"
}
