{
  "name": "dirty_lens",
  "do": "",
  "dont": "",
  "tags": ["camera", "dirty", "lens", "photography", "splat"],
  "category": ["image"],
  "type": "static",
  "label": "None",
  "date": "03/03/2021",
  "hasOutlined": true
}
