{
  "name": "do_disturb_off",
  "do": "",
  "dont": "",
  "tags": [
    "cancel",
    "close",
    "denied",
    "deny",
    "disabled",
    "disturb",
    "do",
    "enabled",
    "off",
    "on",
    "remove",
    "silence",
    "slash",
    "stop"
  ],
  "category": ["notification"],
  "type": "static",
  "label": "None",
  "date": "03/03/2021",
  "hasOutlined": true
}
