{
  "name": "emoji_symbols",
  "do": "",
  "dont": "",
  "tags": [
    "ampersand",
    "character",
    "emoji",
    "hieroglyph",
    "music",
    "note",
    "percent",
    "sign",
    "symbols"
  ],
  "category": ["social"],
  "type": "static",
  "hasOutlined": true,
  "date": "30/11/2020"
}
