{
  "name": "emoji_people",
  "do": "",
  "dont": "",
  "tags": [
    "arm",
    "body",
    "emoji",
    "greeting",
    "human",
    "people",
    "person",
    "social",
    "waving"
  ],
  "category": ["social"],
  "type": "static",
  "hasOutlined": true,
  "date": "30/11/2020"
}
