{
  "name": "ev_station",
  "do": "",
  "dont": "",
  "tags": [
    "automobile",
    "cars",
    "ev",
    "maps",
    "car",
    "electric",
    "charging",
    "station",
    "electricity",
    "transportation",
    "vehicle"
  ],
  "category": ["maps"],
  "type": "static",
  "hasOutlined": true,
  "date": "30/11/2020"
}
