{
  "name": "explore",
  "do": "",
  "dont": "",
  "tags": [
    "explore",
    "compass",
    "destination",
    "location",
    "needle",
    "travel",
    "map"
  ],
  "category": ["action"],
  "type": "static",
  "hasOutlined": true,
  "date": "30/11/2020"
}
