{
  "name": "fastfood",
  "do": "",
  "dont": "",
  "tags": ["drink", "fastfood", "food", "hamburger", "meal"],
  "category": ["maps"],
  "type": "static",
  "hasOutlined": true,
  "date": "30/11/2020"
}
