{
  "name": "filter_4",
  "do": "",
  "dont": "",
  "tags": ["photography", "photo", "image", "edit", "four"],
  "category": ["image"],
  "type": "static",
  "hasOutlined": true,
  "date": "30/11/2020"
}
