{
  "name": "filter_center_focus",
  "do": "",
  "dont": "",
  "tags": ["photography", "photo", "image", "centered", "focused", "alignment"],
  "category": ["image"],
  "type": "static",
  "hasOutlined": true,
  "date": "30/11/2020"
}
