{
  "name": "filter_list",
  "do": "",
  "dont": "",
  "tags": ["filter", "organize", "find", "sort", "list"],
  "category": ["content"],
  "type": "static",
  "hasOutlined": true,
  "date": "30/11/2020"
}
