{
  "name": "flip_camera_ios",
  "do": "",
  "dont": "",
  "tags": [
    "android",
    "camera",
    "edit",
    "editing",
    "flip",
    "image",
    "mobile",
    "orientation",
    "rotate",
    "turn"
  ],
  "category": ["image"],
  "type": "static",
  "hasOutlined": true,
  "date": "30/11/2020"
}
