{
  "name": "folder_shared",
  "do": "",
  "dont": "",
  "tags": ["folder", "open", "file", "accessed", "common", "public"],
  "category": ["file"],
  "type": "static",
  "hasOutlined": true,
  "date": "30/11/2020"
}
