{
  "name": "gavel",
  "do": "",
  "dont": "",
  "tags": [
    "government",
    "law",
    "police",
    "document",
    "official",
    "rule",
    "gavel",
    "mallet",
    "rules",
    "judge",
    "court"
  ],
  "category": ["action"],
  "type": "static",
  "hasOutlined": true,
  "date": "30/11/2020"
}
