{
  "name": "group",
  "do": "",
  "dont": "",
  "tags": ["team", "people", "users", "business", "users"],
  "category": ["roles"],
  "type": "static",
  "hasOutlined": true,
  "date": "30/11/2020"
}
