{
  "name": "hevc",
  "do": "",
  "dont": "",
  "tags": [
    "alphabet",
    "character",
    "coding",
    "efficiency",
    "font",
    "hevc",
    "high",
    "letter",
    "symbol",
    "text",
    "type",
    "video"
  ],
  "category": ["image"],
  "type": "static",
  "label": "None",
  "date": "03/03/2021",
  "hasOutlined": true
}
