{
  "name": "history_edu",
  "do": "",
  "dont": "",
  "tags": [
    "document",
    "edu",
    "feather",
    "history",
    "letter",
    "paper",
    "pen",
    "quill",
    "story",
    "tools",
    "write",
    "writing"
  ],
  "category": ["social"],
  "type": "static",
  "hasOutlined": true,
  "date": "30/11/2020"
}
