{
  "name": "home_work",
  "do": "",
  "dont": "",
  "tags": [
    "architecture",
    "building",
    "estate",
    "home",
    "place",
    "real",
    "residence",
    "residential",
    "shelter",
    "work"
  ],
  "category": ["navigation"],
  "type": "static",
  "hasOutlined": true,
  "date": "30/11/2020"
}
