{
  "name": "inventory",
  "do": "",
  "dont": "",
  "tags": [
    "buy",
    "check",
    "clipboard",
    "commerce",
    "e-commerce",
    "inventory",
    "list",
    "purchase",
    "shop",
    "store"
  ],
  "category": ["content"],
  "type": "static",
  "label": "None",
  "date": "03/03/2021",
  "hasOutlined": true
}
