{
  "name": "living",
  "do": "",
  "dont": "",
  "tags": [
    "chair",
    "comfort",
    "couch",
    "decoration",
    "furniture",
    "home",
    "house",
    "living",
    "lounging",
    "loveseat",
    "room",
    "seat",
    "seating",
    "sofa"
  ],
  "category": ["search"],
  "type": "static",
  "label": "None",
  "date": "03/03/2021",
  "hasOutlined": true
}
