{
  "name": "male",
  "do": "",
  "dont": "",
  "tags": ["boy", "gender", "man", "avatar", "portrait"],
  "category": ["social"],
  "type": "static",
  "label": "None",
  "date": "03/03/2021",
  "hasOutlined": true
}
