{
  "name": "manage_search",
  "do": "",
  "dont": "",
  "tags": ["glass", "history", "magnifying", "manage", "search", "text"],
  "category": ["search"],
  "type": "static",
  "label": "None",
  "date": "03/03/2021",
  "hasOutlined": true
}
