{
  "name": "meeting_room",
  "do": "",
  "dont": "",
  "tags": [
    "door",
    "doorway",
    "entrance",
    "interior",
    "meeting",
    "open",
    "place",
    "room"
  ],
  "category": ["places"],
  "type": "static",
  "hasOutlined": true,
  "date": "30/11/2020"
}
