{
  "name": "monitor",
  "do": "",
  "dont": "",
  "tags": [
    "Android",
    "OS",
    "chrome",
    "computer",
    "desktop",
    "device",
    "display",
    "hardware",
    "iOS",
    "mac",
    "monitor",
    "screen",
    "web",
    "window"
  ],
  "category": ["hardware"],
  "type": "static",
  "label": "None",
  "date": "03/03/2021",
  "hasOutlined": true
}
