{
  "name": "moving",
  "do": "",
  "dont": "",
  "tags": [
    "arrow",
    "up",
    "interface",
    "top",
    "pointer",
    "direction",
    "business",
    "growth",
    "profit",
    "graph",
    "startup",
    "statistic"
  ],
  "category": ["maps"],
  "type": "static",
  "label": "None",
  "date": "03/03/2021",
  "hasOutlined": true
}
