{
  "name": "no_sim",
  "do": "",
  "dont": "",
  "tags": [
    "eject",
    "memory",
    "phone",
    "Sim",
    "insert",
    "storage",
    "camera",
    "device",
    "card"
  ],
  "category": ["communication"],
  "type": "static",
  "hasOutlined": true,
  "date": "30/11/2020"
}
