{
  "name": "nordic_walking",
  "do": "",
  "dont": "",
  "tags": [
    "activity",
    "sport",
    "people",
    "game",
    "hiking",
    "stick",
    "mountain",
    "trekking",
    "fitness"
  ],
  "category": ["social"],
  "type": "static",
  "label": "None",
  "date": "03/03/2021",
  "hasOutlined": true
}
