{
  "name": "notifications_active",
  "do": "",
  "dont": "",
  "tags": ["alert", "notification", "alarm", "ring", "attention"],
  "category": ["social"],
  "type": "static",
  "hasOutlined": true,
  "date": "30/11/2020"
}
