{
  "name": "online_prediction",
  "do": "",
  "dont": "",
  "tags": [
    "lamp",
    "bulb",
    "signal",
    "idea",
    "forecast",
    "prognostic",
    "projection",
    "estimation"
  ],
  "category": ["action"],
  "type": "static",
  "hasOutlined": true,
  "date": "30/11/2020"
}
