{
  "name": "person_pin_circle",
  "do": "",
  "dont": "",
  "tags": [
    "maps",
    "profile",
    "destination",
    "people",
    "face",
    "pin",
    "stop",
    "person",
    "location",
    "place",
    "human",
    "user",
    "account",
    "direction"
  ],
  "category": ["maps"],
  "type": "static",
  "hasOutlined": true,
  "date": "30/11/2020"
}
