{
  "name": "person_add_alt",
  "do": "",
  "dont": "",
  "tags": [
    "+",
    "account",
    "add",
    "face",
    "human",
    "people",
    "person",
    "plus",
    "profile",
    "user"
  ],
  "category": ["social"],
  "type": "static",
  "label": "None",
  "date": "03/03/2021",
  "hasOutlined": true
}
