{
  "name": "phone_callback",
  "do": "",
  "dont": "",
  "tags": [
    "arrow",
    "arrows",
    "back",
    "call",
    "cell",
    "contact",
    "device",
    "down",
    "hardware",
    "phone",
    "telephone"
  ],
  "category": ["notification"],
  "type": "static",
  "hasOutlined": true,
  "date": "30/11/2020"
}
