{
  "name": "play_disabled",
  "do": "",
  "dont": "",
  "tags": [
    "Play",
    "arrow",
    "control",
    "controls",
    "disabled",
    "enabled",
    "music",
    "off",
    "on",
    "slash",
    "video"
  ],
  "category": ["av"],
  "type": "static",
  "label": "None",
  "date": "03/03/2021",
  "hasOutlined": true
}
