{
  "name": "public_off",
  "do": "",
  "dont": "",
  "tags": [
    "open",
    "published",
    "transportation",
    "global",
    "web",
    "network",
    "online",
    "connection"
  ],
  "category": ["social"],
  "type": "static",
  "hasOutlined": true,
  "date": "30/11/2020"
}
