{
  "name": "reorder",
  "do": "",
  "dont": "",
  "tags": ["stacked", "format", "reorder", "lines", "list", "order"],
  "category": ["action"],
  "type": "static",
  "hasOutlined": true,
  "date": "30/11/2020"
}
