{
  "name": "repeat_on",
  "do": "",
  "dont": "",
  "tags": [
    "1",
    "Repeat",
    "arrow",
    "arrows",
    "control",
    "controls",
    "music",
    "video"
  ],
  "category": ["av"],
  "type": "static",
  "label": "None",
  "date": "03/03/2021",
  "hasOutlined": true
}
