{
  "name": "repeat_one",
  "do": "",
  "dont": "",
  "tags": [
    "1",
    "number",
    "symbol",
    "controls",
    "music",
    "arrow",
    "arrows",
    "Repeat",
    "control",
    "video",
    "digit"
  ],
  "category": ["av"],
  "type": "static",
  "hasOutlined": true,
  "date": "30/11/2020"
}
