{
  "name": "rss_feed",
  "do": "",
  "dont": "",
  "tags": ["feed", "website", "Rss", "application", "blog"],
  "category": ["communication"],
  "type": "static",
  "hasOutlined": true,
  "date": "30/11/2020"
}
