{
  "name": "safety_divider",
  "do": "",
  "dont": "",
  "tags": [
    "barrie",
    "separate",
    "wall",
    "side",
    "protection",
    "security",
    "care",
    "zone"
  ],
  "category": ["social"],
  "type": "static",
  "label": "None",
  "date": "03/03/2021",
  "hasOutlined": true
}
