{
  "name": "score",
  "do": "",
  "dont": "",
  "tags": [
    "2k",
    "alphabet",
    "analytics",
    "bar",
    "bars",
    "character",
    "chart",
    "data",
    "diagram",
    "digit",
    "font",
    "graph",
    "infographic",
    "letter",
    "measure",
    "metrics",
    "number",
    "score",
    "statistics",
    "symbol",
    "text",
    "tracking",
    "type"
  ],
  "category": ["editor"],
  "type": "static",
  "hasOutlined": true,
  "date": "30/11/2020"
}
