{
  "name": "sd_storage",
  "do": "",
  "dont": "",
  "tags": [
    "digital",
    "sd",
    "memory",
    "data",
    "storage",
    "camera",
    "secure",
    "card"
  ],
  "category": ["device"],
  "type": "static",
  "hasOutlined": true,
  "date": "30/11/2020"
}
