{
  "name": "settings_input_antenna",
  "do": "",
  "dont": "",
  "tags": [
    "antenna",
    "input",
    "settings",
    "connectivity",
    "connection",
    "connect"
  ],
  "category": ["action"],
  "type": "static",
  "hasOutlined": true,
  "date": "30/11/2020"
}
