{
  "name": "signal_wifi_statusbar_connected_no_internet_4",
  "do": "",
  "dont": "",
  "tags": [
    "!",
    "alert",
    "attention",
    "caution",
    "cell",
    "cellular",
    "danger",
    "data",
    "error",
    "exclamation",
    "important",
    "internet",
    "mark",
    "mobile",
    "network",
    "notification",
    "phone",
    "signal",
    "speed",
    "symbol",
    "warning",
    "wifi",
    "wireless"
  ],
  "category": ["device"],
  "type": "static",
  "label": "None",
  "date": "03/03/2021",
  "hasOutlined": true
}
