{
  "name": "sports_golf",
  "do": "",
  "dont": "",
  "tags": [
    "athlete",
    "athletic",
    "ball",
    "club",
    "entertainment",
    "exercise",
    "game",
    "golf",
    "golfer",
    "golfing",
    "hobby",
    "social",
    "sports"
  ],
  "category": ["social"],
  "type": "static",
  "hasOutlined": true,
  "date": "30/11/2020"
}
