{
  "name": "square_foot",
  "do": "",
  "dont": "",
  "tags": [
    "construction",
    "feet",
    "foot",
    "inches",
    "length",
    "measurement",
    "ruler",
    "school",
    "set",
    "square"
  ],
  "category": ["content"],
  "type": "static",
  "hasOutlined": true,
  "date": "30/11/2020"
}
