{
  "name": "star",
  "do": "",
  "dont": "",
  "tags": ["review", "rating", "valuation", "appraisal", "rank"],
  "category": ["toggle"],
  "type": "static",
  "hasOutlined": true,
  "date": "30/11/2020"
}
