{
  "name": "switch_right",
  "do": "",
  "dont": "",
  "tags": ["control", "setting", "arrow", "shuffle"],
  "category": ["navigation"],
  "type": "static",
  "hasOutlined": true,
  "date": "30/11/2020"
}
