{
  "name": "task_alt",
  "do": "",
  "dont": "",
  "tags": [
    "check",
    "checklist",
    "job",
    "list",
    "note",
    "ok",
    "task",
    "tick",
    "work",
    "circle",
    "done",
    "finish"
  ],
  "category": ["action"],
  "type": "static",
  "label": "None",
  "date": "03/03/2021",
  "hasOutlined": true
}
