{
  "name": "text_rotation_angleup",
  "do": "",
  "dont": "",
  "tags": [
    "A",
    "alphabet",
    "angleup",
    "arrow",
    "character",
    "field",
    "font",
    "letter",
    "move",
    "rotate",
    "symbol",
    "text",
    "type"
  ],
  "category": ["action"],
  "type": "static",
  "hasOutlined": true,
  "date": "30/11/2020"
}
