{
  "name": "video_stable",
  "do": "",
  "dont": "",
  "tags": ["film", "filming", "setting", "stability", "stable", "video"],
  "category": ["image"],
  "type": "static",
  "label": "None",
  "date": "03/03/2021",
  "hasOutlined": true
}
