{
  "name": "videocam",
  "do": "",
  "dont": "",
  "tags": ["conference", "Video", "chat", "screen", "camera"],
  "category": ["av"],
  "type": "static",
  "hasOutlined": true,
  "date": "30/11/2020"
}
