{
  "name": "view_quilt",
  "do": "",
  "dont": "",
  "tags": [
    "square",
    "quilt",
    "view",
    "stacked",
    "grid",
    "format",
    "squares",
    "reorder",
    "title",
    "order"
  ],
  "category": ["action"],
  "type": "static",
  "hasOutlined": true,
  "date": "30/11/2020"
}
