{
  "name": "view_compact",
  "do": "",
  "dont": "",
  "tags": ["grid", "layout format", "screen", "photography", "dashboard"],
  "category": ["image"],
  "type": "static",
  "hasOutlined": true,
  "date": "30/11/2020"
}
