{
  "name": "waterfall_chart",
  "do": "",
  "dont": "",
  "tags": [
    "analytics",
    "bar",
    "bars",
    "chart",
    "data",
    "diagram",
    "graph",
    "infographic",
    "measure",
    "metrics",
    "statistics",
    "tracking",
    "waterfall"
  ],
  "category": ["navigation"],
  "type": "static",
  "label": "None",
  "date": "03/03/2021",
  "hasOutlined": true
}
