{
  "name": "package_upgrade",
  "do": "<ul><li>To upgrade an existing package.</li></ul>",
  "dont": "<ul><li>To create or install package.</li></ul>",
  "tags": [
    "eos",
    "upgrade",
    "bundle",
    "collection",
    "pack",
    "parcel",
    "box",
    "wrap",
    "boost",
    "promote",
    "revamp",
    "enhance",
    "module",
    "extension"
  ],
  "category": "development",
  "type": "static",
  "date": "30/11/2020"
}
