{
  "name": "system_image",
  "do": "<ul><li>To represent disk images, containers or ISOs.</li></ul>",
  "dont": "<ul><li>For images, such as photos or pictures.</li></ul>",
  "tags": ["eos", "docker", "container", "disk", "iso"],
  "category": "virtualization",
  "type": "static",
  "date": "30/11/2020"
}
