{
  "name": "volume",
  "do": "<ul><li>Use it for unit of storage.</li><li>Use it for hard disk.</li></ul>",
  "dont": "",
  "tags": ["eos", "disk", "drive", "kubernetes"],
  "category": "hardware",
  "type": "static",
  "date": "30/11/2020"
}
